{
  "runtimeTarget": {
    "name": ".NETCoreApp,Version=v5.0",
    "signature": ""
  },
  "compilationOptions": {},
  "targets": {
    ".NETCoreApp,Version=v5.0": {
      "WPFFormulaBox/1.9.2": {
        "dependencies": {
          "SerializableFormula": "1.9.0",
          "TFPExpressionParser.Functions": "1.5.0",
          "TFPExpressionParser.NET": "1.4.0"
        },
        "runtime": {
          "WPFFormulaBox.dll": {}
        }
      },
      "Essy.Math.Statistical/2.4.0": {
        "runtime": {
          "lib/netstandard2.0/StatisticalFunctions_Standard.dll": {
            "assemblyVersion": "1.0.0.1",
            "fileVersion": "1.0.0.1"
          }
        }
      },
      "SerializableFormula/1.9.0": {
        "dependencies": {
          "Essy.Math.Statistical": "2.4.0",
          "TFPExpressionParser.NET": "1.4.0"
        },
        "runtime": {
          "lib/netstandard2.0/Serializable Formula.dll": {
            "assemblyVersion": "1.8.1.0",
            "fileVersion": "1.8.1.0"
          }
        }
      },
      "TFPExpressionParser.Functions/1.5.0": {
        "dependencies": {
          "Essy.Math.Statistical": "2.4.0",
          "TFPExpressionParser.NET": "1.4.0"
        },
        "runtime": {
          "lib/netstandard2.0/TFPExpressionParserFunctions_Standard.dll": {
            "assemblyVersion": "1.0.0.1",
            "fileVersion": "1.0.0.1"
          }
        }
      },
      "TFPExpressionParser.NET/1.4.0": {
        "runtime": {
          "lib/netstandard2.0/TfpExpressionParser.NET.dll": {
            "assemblyVersion": "1.4.0.0",
            "fileVersion": "1.4.0.0"
          }
        }
      }
    }
  },
  "libraries": {
    "WPFFormulaBox/1.9.2": {
      "type": "project",
      "serviceable": false,
      "sha512": ""
    },
    "Essy.Math.Statistical/2.4.0": {
      "type": "package",
      "serviceable": true,
      "sha512": "sha512-JUTuwGL6ob6j/DBtFuscLvjEbIT0opog86T9CSwZjGGymePlY2qrWvFyS3NMt32hC0FTo9gMR8B9j8UYljy7/g==",
      "path": "essy.math.statistical/2.4.0",
      "hashPath": "essy.math.statistical.2.4.0.nupkg.sha512"
    },
    "SerializableFormula/1.9.0": {
      "type": "package",
      "serviceable": true,
      "sha512": "sha512-wWguv1ZbvbyTrBrnNUiGFw3dEvjG2v6ARirV2q8G0PU8cnTt8bWWCRp2Ws1YqkVTooHnsRuH+8z3iIOX68+ZUQ==",
      "path": "serializableformula/1.9.0",
      "hashPath": "serializableformula.1.9.0.nupkg.sha512"
    },
    "TFPExpressionParser.Functions/1.5.0": {
      "type": "package",
      "serviceable": true,
      "sha512": "sha512-r0yG9KG+9PejuAj5c0w13bFq0be/W7pGMvODHXKtV0OqcLeWTkArkC6XOSRjGdJDlivz7n+PjyY8HZ8hCgdYTw==",
      "path": "tfpexpressionparser.functions/1.5.0",
      "hashPath": "tfpexpressionparser.functions.1.5.0.nupkg.sha512"
    },
    "TFPExpressionParser.NET/1.4.0": {
      "type": "package",
      "serviceable": true,
      "sha512": "sha512-3ZeHIs+NNcsPAf6EFIdrSoCm4jXzAZdTnpTts9hCogM4SbnrFRDFFw+FUfDMDYUnJYvUKVUSI2nXjiATFhF8mQ==",
      "path": "tfpexpressionparser.net/1.4.0",
      "hashPath": "tfpexpressionparser.net.1.4.0.nupkg.sha512"
    }
  }
}